^D:\USERS\USER-PC\DESKTOP\MAGSHIMIM\11TH GRADE\SYSTEM PROGRAMMING\LESSON 11\HW11_ADVAGABAY\SELFDELETER\SELFDELETER\SELFDELETER.C
/c /ZI /nologo /W3 /WX- /Od /Oy- /D WIN32 /D _DEBUG /D _CONSOLE /D _LIB /D _UNICODE /D UNICODE /Gm /EHsc /RTC1 /MDd /GS /fp:precise /Zc:wchar_t /Zc:forScope /Fo"DEBUG\\" /Fd"DEBUG\VC120.PDB" /Gd /TC /analyze- D:\USERS\USER-PC\DESKTOP\MAGSHIMIM\11TH GRADE\SYSTEM PROGRAMMING\LESSON 11\HW11_ADVAGABAY\SELFDELETER\SELFDELETER\SELFDELETER.C
^D:\USERS\USER-PC\DESKTOP\MAGSHIMIM\11TH_GRADE\SYSTEM_PROGRAMMING\LESSON_11\HW11_ADVAGABAY\SELFDELETER\SELFDELETER\SELFDELETER.C
/c /ZI /nologo /W3 /WX- /Od /Oy- /D WIN32 /D _DEBUG /D _CONSOLE /D _LIB /D _UNICODE /D UNICODE /Gm /EHsc /RTC1 /MDd /GS /fp:precise /Zc:wchar_t /Zc:forScope /Fo"DEBUG\\" /Fd"DEBUG\VC120.PDB" /Gd /TC /analyze- D:\USERS\USER-PC\DESKTOP\MAGSHIMIM\11TH_GRADE\SYSTEM_PROGRAMMING\LESSON_11\HW11_ADVAGABAY\SELFDELETER\SELFDELETER\SELFDELETER.C
^D:\USERS\USER-PC\DESKTOP\MAGSHIMIM\11TH GRADE\SYSTEM_PROGRAMMING\LESSON_11\HW11_ADVAGABAY\SELFDELETER\SELFDELETER\SELFDELETER.C
/c /ZI /nologo /W3 /WX- /Od /Oy- /D WIN32 /D _DEBUG /D _CONSOLE /D _LIB /D _UNICODE /D UNICODE /Gm /EHsc /RTC1 /MDd /GS /fp:precise /Zc:wchar_t /Zc:forScope /Fo"DEBUG\\" /Fd"DEBUG\VC120.PDB" /Gd /TC /analyze- D:\USERS\USER-PC\DESKTOP\MAGSHIMIM\11TH GRADE\SYSTEM_PROGRAMMING\LESSON_11\HW11_ADVAGABAY\SELFDELETER\SELFDELETER\SELFDELETER.C
