     1                                  section .data
     2                                  section .text
     3                                  	global main  
     4                                  main:
     5 00000000 31DB                    xor ebx,ebx
     6 00000002 66BB3805                mov bx,0x538
     7 00000006 31C0                    xor eax,eax
     8 00000008 40                      inc eax	;exit system call
     9 00000009 CD80                    int 0x80
